{
  "global": {
    "parseVersion": "1.4.2"
  },
  "applications": {
    "Nearby Friends": {
      "applicationId": "SalP74ZfM3H2iu7jIfHlgSHtPuIvbXkdwFBeg1l6",
      "masterKey": "79BsEyAVK9PbnbshFeWFXyxVieTzTyMbS0rHPaST"
    },
    "_default": {
      "link": "Nearby Friends"
    }
  }
}